ST558_2024_Project2
…
library (pheatmap)

Warning: package 'pheatmap' was built under R version 4.3.2

setwd ("C:/NCSU/Statistics/ST558/2024/ST558_2024-Project 2")  
MelHousing <- read.csv ("MELBOURNE_HOUSE_PRICES.csv") |> as.tibble () 

Warning: `as.tibble()` was deprecated in tibble 2.0.0.
ℹ Please use `as_tibble()` instead.
ℹ The signature and semantics have changed, see `?as_tibble`.

MelHousing 

# A tibble: 63,023 × 13
   Suburb   Address Rooms Type    Price Method SellerG Date  Postcode Regionname
   <chr>    <chr>   <int> <chr>   <int> <chr>  <chr>   <chr>    <int> <chr>     
 1 Abbotsf… 49 Lit…     3 h     1490000 S      Jellis  1/04…     3067 Northern …
 2 Abbotsf… 59A Tu…     3 h     1220000 S      Marsha… 1/04…     3067 Northern …
 3 Abbotsf… 119B Y…     3 h     1420000 S      Nelson  1/04…     3067 Northern …
 4 Aberfel… 68 Vid…     3 h     1515000 S      Barry   1/04…     3040 Western M…
 5 Airport… 92 Cly…     2 h      670000 S      Nelson  1/04…     3042 Western M…
 6 Airport… 4/32 E…     2 t      530000 S      Jellis  1/04…     3042 Western M…
 7 Airport… 3/74 H…     2 u      540000 S      Barry   1/04…     3042 Western M…
 8 Airport… 1/26 H…     3 h      715000 SP     Nelson  1/04…     3042 Western M…
 9 Albanva… 1 Jack…     6 h          NA PI     hockin… 1/04…     3021 Western M…
10 Albert … 18 Mil…     3 h     1925000 S      Cayzer  1/04…     3206 Southern …
# ℹ 63,013 more rows
# ℹ 3 more variables: Propertycount <int>, Distance <dbl>, CouncilArea <chr>
…
Heatmap for daily price for different region

It is interesting to look at the price changes of housing in different region at different time points. To make a heatmap meaningful, we first need to sort out the average price data for each council area at each time point, and then do normalization.

daily_avg_price_regionF <- MelHousing |> group_by(Date, RegionF) |> 
  summarize (price_avg = mean (Price, na.rm = TRUE)) |>
  pivot_wider(names_from = RegionF, values_from = price_avg) |>
  drop_na()

`summarise()` has grouped output by 'Date'. You can override using the
`.groups` argument.

daily_avg_price_regionF

# A tibble: 26 × 9
# Groups:   Date [26]
   Date       `Eastern Metropolitan` `Eastern Victoria` `Northern Metropolitan`
   <date>                      <dbl>              <dbl>                   <dbl>
 1 2016-03-12               1111180.            596750                  780858.
 2 2016-04-02                981786.            743000                  610079.
 3 2016-08-10               1075292.            519333.                 751397.
 4 2016-10-12               1000839.            642333.                 780504.
 5 2017-01-04               1147026.            535333.                 865783.
 6 2017-01-07               1053513.            695625                  866154.
 7 2017-03-06               1073682.            641000                  876006.
 8 2017-03-09               1132762.            758200                  878903.
 9 2017-04-03               1029440.            702800                  860875.
10 2017-04-11               1114500             725000                  806091.
# ℹ 16 more rows
# ℹ 5 more variables: `Northern Victoria` <dbl>,
#   `South-Eastern Metropolitan` <dbl>, `Southern Metropolitan` <dbl>,
#   `Western Metropolitan` <dbl>, `Western Victoria` <dbl>

Then we need to normalize the data using the function mutate (across(everything(), ~./first (.)))

first_values <- sapply(daily_avg_price_regionF[-1], first)

daily_avg_price_regionF_normalized <- daily_avg_price_regionF |>
  mutate (across (everything(), ~. / first_values[cur_column()]))
  
daily_avg_price_regionF_normalized

# A tibble: 26 × 9
# Groups:   Date [26]
   Date       `Eastern Metropolitan` `Eastern Victoria` `Northern Metropolitan`
   <date>                      <dbl>              <dbl>                   <dbl>
 1 2016-03-12                  1                  1                       1    
 2 2016-04-02                  0.884              1.25                    0.781
 3 2016-08-10                  0.968              0.870                   0.962
 4 2016-10-12                  0.901              1.08                    1.00 
 5 2017-01-04                  1.03               0.897                   1.11 
 6 2017-01-07                  0.948              1.17                    1.11 
 7 2017-03-06                  0.966              1.07                    1.12 
 8 2017-03-09                  1.02               1.27                    1.13 
 9 2017-04-03                  0.926              1.18                    1.10 
10 2017-04-11                  1.00               1.21                    1.03 
# ℹ 16 more rows
# ℹ 5 more variables: `Northern Victoria` <dbl>,
#   `South-Eastern Metropolitan` <dbl>, `Southern Metropolitan` <dbl>,
#   `Western Metropolitan` <dbl>, `Western Victoria` <dbl>
…
